{
    "http-basic": {
        "nova.laravel.com": {
            "username": "luke.mckelvey@hotmail.com",
            "password": "X0WzFC8MyCJFf5VBrgS3Ta7lKgrtBbthbQrD28VPctnNnGAlRz"
        }
    }
}
