<svg xmlns="http://www.w3.org/2000/svg" width="25.542" height="24.254" viewBox="0 0 25.542 24.254">
  <path id="Icon_material-restaurant-menu" data-name="Icon material-restaurant-menu" d="M11.27,18.334l3.78-3.78L5.673,5.19a5.353,5.353,0,0,0,0,7.561Zm9.057-2.418c2.044.948,4.916.281,7.04-1.843,2.551-2.551,3.046-6.212,1.082-8.175s-5.61-1.469-8.175,1.082c-2.124,2.124-2.792,5-1.843,7.04L5.392,27.057,7.276,28.94l9.2-9.177,9.19,9.19,1.883-1.883-9.19-9.19Z" transform="translate(-4.11 -4.7)"/>
</svg>
