<?xml version="1.0" encoding="utf-8"?>
<!-- Generator: Adobe Illustrator 26.0.1, SVG Export Plug-In . SVG Version: 6.00 Build 0)  -->
<svg version="1.1" xmlns="http://www.w3.org/2000/svg" xmlns:xlink="http://www.w3.org/1999/xlink" x="0px" y="0px"
	 viewBox="0 0 176.4 53.7" style="enable-background:new 0 0 176.4 53.7;" xml:space="preserve">
<style type="text/css">
	.st0{fill:#F6CF3C;}
	.st1{fill:#FFFFFF;}
	.st2{fill:#AF1924;}
	.st3{fill:url(#SVGID_1_);}
	.st4{fill:url(#SVGID_00000065781765974499606960000016401857890544581000_);}
</style>
<g id="Group_71">
	<path id="Path_29" class="st0" d="M9.1,44.4l-7.4-18H0V19h13.9v7.3h-1.6l2.8,8.1l2.9-8.1h-1.6V19h12.3v7.4H27l-7.4,18H9.1z"/>
	<path id="Path_30" class="st0" d="M39.5,34.1c0.3,2.7,2.4,3.6,5.3,3.6c2.6-0.1,5.1-0.9,7.3-2.4l3.2,6.1c0,0-4.1,3.7-12.2,3.7
		s-13.8-4.4-13.8-13.3s6-13.3,13.8-13.3s12.9,5.1,12.9,13.3v2.3H39.5z M46.3,28.4c-0.1-2.1-1.3-3.7-3.4-3.7s-3.4,1.3-3.7,3.7H46.3z"
		/>
	<path id="Path_31" class="st0" d="M97.2,43.8c-2.3,0.7-4.7,1.1-7.2,1.2c-2.6,0-4.9-0.4-6.7-2S81,39.1,81,36.5V26.4h-2.2V19H81v-5.5
		l10.3-2.7V19H97v7.4h-5.7V35c-0.1,0.6,0.1,1.2,0.5,1.7c0.6,0.4,1.2,0.5,1.9,0.4c0.9,0,1.8-0.2,2.6-0.3L97.2,43.8z"/>
	<path id="Path_32" class="st0" d="M98.8,44.4V37h2V26.4h-2V19h12.3v18h1.9v7.4H98.8z"/>
	<path id="Path_33" class="st1" d="M131.8,39.7c0,0-2.1,3.4-7.6,3.4c-5.6,0-10.5-4-10.5-12.3s4.9-12.3,11.1-12.3
		c5.1,0,6.8,3.4,6.8,3.4V19h11.9v7.4h-1.6v11.9c0,4.4-1,8.4-3.5,11.3s-6.2,4.1-11.8,4.1c-4.3,0-8.6-1-12.5-2.8l3.2-7.2
		c2.6,1.5,5.6,2.3,8.7,2.4c2.2,0,3.9-0.4,4.6-1.2c0.8-0.9,1.2-2.1,1.2-3.4L131.8,39.7z M131.9,30.7c0-2.6-1.2-4.8-3.8-4.8
		s-3.8,2.2-3.8,4.8s1.2,4.8,3.8,4.8S131.9,33.3,131.9,30.7L131.9,30.7z"/>
	<path id="Path_34" class="st1" d="M158.4,45c-8.3,0-14.2-4.8-14.2-13.3s5.9-13.3,14.2-13.3s14.2,4.7,14.2,13.3S166.7,45,158.4,45z
		 M162.1,31.7c0-3.3-1.1-6.1-3.7-6.1s-3.7,2.8-3.7,6.1s1.1,6.1,3.7,6.1S162.1,35,162.1,31.7L162.1,31.7z"/>
	<path id="Path_35" class="st1" d="M12,14.8l-1.5-7.2L9,14.8H3.5L0.8,5.7H0V1.9h6.5v3.7H5.6l1,4.1l1.6-7.8h5.4l1.6,7.8l1-4.1h-0.9
		V1.9H21v3.7h-0.8l-2.7,9.1H12z"/>
	<path id="Path_36" class="st1" d="M26.4,9.4c0.1,1.4,1.2,1.8,2.7,1.8c1.3,0,2.6-0.5,3.7-1.2l1.6,3.1c-1.8,1.3-4,2-6.2,1.9
		c-4.1,0-7-2.2-7-6.7s3-6.7,7-6.7s6.5,2.6,6.5,6.7v1.2H26.4z M29.9,6.6c0.1-1-0.6-1.8-1.6-1.9c0,0-0.1,0-0.1,0c-1,0-1.8,0.8-1.9,1.8
		c0,0,0,0.1,0,0.1H29.9z"/>
	<path id="Path_37" class="st1" d="M45.9,14.8v-1.6c-0.8,1.2-2.1,1.9-3.6,1.9c-1.9,0-4.4-0.9-4.4-4.1s3.2-3.8,4-3.9
		c1.2-0.2,2.3-0.3,3.5-0.3h0.4V6.3c0-0.7-0.6-1.1-2-1.1c-1.4,0.1-2.8,0.5-4.1,1.2L38.3,3c1.9-0.9,4-1.3,6.1-1.3
		c1.7-0.1,3.4,0.3,4.8,1.3c1.2,1,1.9,2.5,1.8,4.1v4h0.9v3.7H45.9z M45.8,9.2c-0.5,0-1,0-1.5,0.2c-0.6,0.2-1.2,0.5-1.2,1.2
		c0,0.6,0.5,1.1,1.1,1.1c0,0,0.1,0,0.1,0c0.6,0,1.2-0.3,1.5-0.9V9.2z"/>
	<path id="Path_38" class="st1" d="M68.5,9.5c0.1,1.4,1.2,1.8,2.7,1.8c1.3,0,2.6-0.5,3.7-1.2l1.6,3.1c-1.8,1.3-4,2-6.2,1.9
		c-4.1,0-7-2.2-7-6.7s3-6.7,7-6.7s6.5,2.6,6.5,6.7v1.2H68.5z M71.9,6.7c0.1-0.9-0.6-1.8-1.6-1.9c0,0-0.1,0-0.1,0
		c-1,0-1.8,0.8-1.9,1.8c0,0,0,0.1,0,0.1H71.9z"/>
	<circle id="Ellipse_1" class="st0" cx="105.9" cy="11.9" r="5.2"/>
	<path id="Path_39" class="st0" d="M73.9,27.7c1,0,2,0.2,3,0.5v-9.6c-0.6-0.1-1.3-0.2-1.9-0.2c-2.2,0-4.8,1.2-6.1,5.1V19H56.7v7.4h2
		V37h-2v7.4h14.9V37h-2.5v-5.4C70,28.3,72.2,27.7,73.9,27.7z"/>
	<path id="Path_40" class="st1" d="M61.4,6.3c0.5,0,1,0.1,1.4,0.2V1.7c-0.3,0-0.6-0.1-0.9-0.1c-1.1,0-2.4,0.6-3.1,2.6V1.9h-6.1v3.7
		h1V11h-1v3.7h7.5V11H59V8.3C59.2,7.1,60.2,6.3,61.4,6.3z"/>
	<g>
		<path class="st2" d="M152.1,2.8c5.7-0.4,16.2-5.7,20.4,1.4c4.2,7,3.7,16.7,2.1,22.6l-3.9-1.5l0.8-2l-16.9-6.7l-0.8,2l-3.6-1.4
			c3.6-6.5,7.5-7.4,7.6-7.4c0.1,0,0.1-0.1,0-0.2c-1.4-0.3-4.6,2.8-5.6,2.2c-1-0.6-0.8-3.1-0.5-3.9c0.1-0.2-0.4-0.4-0.4,0
			c-0.1,2.2-2.4,6.6-8.5,4.8C145.6,10.3,146.4,3.2,152.1,2.8z"/>
		
			<linearGradient id="SVGID_1_" gradientUnits="userSpaceOnUse" x1="224.9166" y1="82.9752" x2="252.9379" y2="82.9752" gradientTransform="matrix(0.9302 0.367 -0.367 0.9302 -28.7587 -144.4363)">
			<stop  offset="0" style="stop-color:#E7E6E6"/>
			<stop  offset="1" style="stop-color:#FFFFFF"/>
		</linearGradient>
		<path class="st3" d="M151.2,15.3c1.3-0.8,6.1-2.7,13.7,0.3c7.7,3,9.9,7.7,10.3,9.1c0.4,1.5,0.4,3.6-1.3,4.5
			c-1.7,0.9-3.4-0.7-4.1-2.2c-0.7-1.4-4.1-4.8-7.1-6c-2.9-1.2-7.8-1-9.3-0.4c-1.5,0.6-3.8,0.7-4.5-1.2
			C148.4,17.7,149.9,16.1,151.2,15.3z"/>
		
			<linearGradient id="SVGID_00000026161775849432853270000014946860311713897646_" gradientUnits="userSpaceOnUse" x1="215.4872" y1="82.9752" x2="223.139" y2="82.9752" gradientTransform="matrix(0.9302 0.367 -0.367 0.9302 -28.7587 -144.4363)">
			<stop  offset="0" style="stop-color:#E7E6E6"/>
			<stop  offset="1" style="stop-color:#FFFFFF"/>
		</linearGradient>
		<circle style="fill:url(#SVGID_00000026161775849432853270000014946860311713897646_);" cx="144.8" cy="13.2" r="3.8"/>
	</g>
</g>
<g id="Layer_2">
</g>
</svg>
